…
    # research question 2 
    # task 3:
    cancer_sample %>%
      select(diagnosis,radius_mean) %>%
      mutate(size = case_when(radius_mean < 10 ~ "small",
                              radius_mean < 20 ~ "medium",
                                     TRUE ~ "large"))

    ## # A tibble: 569 × 3
    ##    diagnosis radius_mean size  
    ##    <chr>           <dbl> <chr> 
    ##  1 M                18.0 medium
    ##  2 M                20.6 large 
    ##  3 M                19.7 medium
    ##  4 M                11.4 medium
    ##  5 M                20.3 large 
    ##  6 M                12.4 medium
    ##  7 M                18.2 medium
    ##  8 M                13.7 medium
    ##  9 M                13   medium
    ## 10 M                12.5 medium
    ## # ℹ 559 more rows
…
(If it makes more sense, then you can make/pick two versions of your
data, one for each research question.)

<!--------------------------- Start your work below --------------------------->

    rdata <- cancer_sample %>%
      select(diagnosis:fractal_dimension_worst) %>%
      drop_na() %>%
      group_by(diagnosis) %>%
      mutate(diagnosis = case_when(diagnosis == 'B' ~ 0,
                               diagnosis == 'M' ~ 1))
    rdata

    ## # A tibble: 569 × 31
    ## # Groups:   diagnosis [2]
    ##    diagnosis radius_mean texture_mean perimeter_mean area_mean smoothness_mean
    ##        <dbl>       <dbl>        <dbl>          <dbl>     <dbl>           <dbl>
    ##  1         1        18.0         10.4          123.      1001           0.118 
    ##  2         1        20.6         17.8          133.      1326           0.0847
    ##  3         1        19.7         21.2          130       1203           0.110 
    ##  4         1        11.4         20.4           77.6      386.          0.142 
    ##  5         1        20.3         14.3          135.      1297           0.100 
    ##  6         1        12.4         15.7           82.6      477.          0.128 
    ##  7         1        18.2         20.0          120.      1040           0.0946
    ##  8         1        13.7         20.8           90.2      578.          0.119 
    ##  9         1        13           21.8           87.5      520.          0.127 
    ## 10         1        12.5         24.0           84.0      476.          0.119 
    ## # ℹ 559 more rows
    ## # ℹ 25 more variables: compactness_mean <dbl>, concavity_mean <dbl>,
    ## #   concave_points_mean <dbl>, symmetry_mean <dbl>,
    ## #   fractal_dimension_mean <dbl>, radius_se <dbl>, texture_se <dbl>,
    ## #   perimeter_se <dbl>, area_se <dbl>, smoothness_se <dbl>,
    ## #   compactness_se <dbl>, concavity_se <dbl>, concave_points_se <dbl>,
    ## #   symmetry_se <dbl>, fractal_dimension_se <dbl>, radius_worst <dbl>, …
…
